<svg xmlns="http://www.w3.org/2000/svg" width="20.998" height="20.998" viewBox="0 0 272 272">
  <path d="M115.077,0H10.463A10.461,10.461,0,0,0,0,10.462V115.077a10.461,10.461,0,0,0,10.462,10.461H115.077a10.461,10.461,0,0,0,10.462-10.461V10.462A10.462,10.462,0,0,0,115.077,0Zm146.46,0H156.922a10.461,10.461,0,0,0-10.461,10.461V115.077a10.46,10.46,0,0,0,10.461,10.461H261.537A10.461,10.461,0,0,0,272,115.077V10.462A10.462,10.462,0,0,0,261.537,0Zm-146.46,146.46H10.463A10.462,10.462,0,0,0,0,156.923V261.537A10.462,10.462,0,0,0,10.463,272H115.077a10.462,10.462,0,0,0,10.462-10.462V156.923A10.462,10.462,0,0,0,115.077,146.461Zm146.46,0H156.922a10.461,10.461,0,0,0-10.461,10.462V261.537A10.461,10.461,0,0,0,156.922,272H261.537A10.462,10.462,0,0,0,272,261.537V156.923A10.462,10.462,0,0,0,261.537,146.461Z"/>
</svg>
