<svg xmlns="http://www.w3.org/2000/svg" width="20.923" height="17.975" viewBox="0 0 145.5 125">
  <path fill="#4a4362" d="M136.723,25.878Q126.946,13.862,110.163,6.9A94.7,94.7,0,0,0,73.5-.071,94.708,94.708,0,0,0,36.837,6.9q-16.783,6.966-26.56,18.983T0.5,52.071a39.528,39.528,0,0,0,7.373,22.9A59.818,59.818,0,0,0,28.038,92.891a51.958,51.958,0,0,1-2.119,6.192q-1.222,2.932-2.2,4.808a32.968,32.968,0,0,1-2.648,4.153q-1.669,2.284-2.525,3.22t-2.811,3.1q-1.954,2.159-2.525,2.811a5.707,5.707,0,0,0-.652.734l-0.57.691-0.489.733a1.545,1.545,0,0,0-.367.773,2.159,2.159,0,0,1-.163.813,1.077,1.077,0,0,0,.041.98v0.082a4.145,4.145,0,0,0,1.3,2.239,3.262,3.262,0,0,0,2.2.855h0.408a61.6,61.6,0,0,0,9.288-1.793,89.04,89.04,0,0,0,37.478-19.717,111.544,111.544,0,0,0,11.813.651,94.676,94.676,0,0,0,36.663-6.967q16.784-6.965,26.56-18.981T146.5,52.071Q146.5,37.9,136.723,25.878Zm-9.166,46.97q-8.517,9.611-22.977,15.274A84.5,84.5,0,0,1,73.5,93.785a91.943,91.943,0,0,1-10.591-.651l-4.644-.488-3.5,3.1a80.349,80.349,0,0,1-22.4,13.932,58.438,58.438,0,0,0,5.7-14.013l2.2-7.822L33.17,83.768a49.686,49.686,0,0,1-16.417-14.3,29.733,29.733,0,0,1-5.825-17.4q0-11.161,8.514-20.775T42.418,16.021A84.489,84.489,0,0,1,73.5,10.357a84.477,84.477,0,0,1,31.08,5.663q14.462,5.662,22.977,15.276t8.513,20.775Q136.07,63.233,127.557,72.848Z" transform="translate(-0.5)"/>
</svg>
